A1123456              CEDENTE DE TESTE    001BANCO DO BRASIL S.A.2018082800000104DEBITO AUTOMATICO                                                    
E12345                    1240000000002154732012071700000000000019003                                                                                0
Z00000300000000000000190                                                                                                                              
